<svg width="16" height="16" viewBox="0 0 16 16" fill="none" xmlns="http://www.w3.org/2000/svg">
<path fill-rule="evenodd" clip-rule="evenodd" d="M9.71372 0.657988C6.3016 -0.138284 2.79057 1.52089 1.23946 4.66262C-0.311647 7.80434 0.505988 11.6006 3.21291 13.8252C5.91983 16.0499 9.80259 16.1166 12.5844 13.9864C12.8212 13.805 12.8661 13.4661 12.6848 13.2293C12.5035 12.9925 12.1645 12.9476 11.9278 13.1289C9.54442 14.954 6.21781 14.8968 3.89863 12.9908C1.57946 11.0849 0.878947 7.83242 2.20787 5.14073C3.53679 2.44904 6.5449 1.02751 9.46828 1.70973C12.3917 2.39194 14.4598 4.99807 14.46 7.99991V8.69988C14.46 9.56138 13.7616 10.2598 12.9001 10.2598C12.0385 10.2598 11.3401 9.56138 11.3401 8.69988V5.20005C11.3401 4.90182 11.0984 4.66005 10.8001 4.66005C10.5019 4.66005 10.2601 4.90182 10.2601 5.20005V5.54073C9.66539 4.99392 8.87176 4.66006 8.00017 4.66006C6.15559 4.66006 4.66025 6.15535 4.66025 7.99992C4.66025 9.84448 6.15559 11.3398 8.00017 11.3398C9.07 11.3398 10.0224 10.8368 10.6336 10.0544C11.0948 10.8244 11.9372 11.3398 12.9001 11.3398C14.358 11.3398 15.54 10.1579 15.54 8.69988V7.99991C15.5398 4.49616 13.1258 1.45426 9.71372 0.657988ZM5.74025 7.99992C5.74025 6.75184 6.75204 5.74006 8.00017 5.74006C9.24829 5.74006 10.2601 6.75184 10.2601 7.99992C10.2601 9.248 9.24829 10.2598 8.00017 10.2598C6.75204 10.2598 5.74025 9.248 5.74025 7.99992Z" fill="#A5A2A2"/>
</svg>
