<svg width="16" height="16" viewBox="0 0 16 16" fill="none" xmlns="http://www.w3.org/2000/svg">
<path d="M8.45455 11.8182C8.75579 11.8182 9 11.574 9 11.2727C9 10.9715 8.75579 10.7273 8.45455 10.7273C8.1533 10.7273 7.90909 10.9715 7.90909 11.2727C7.90909 11.574 8.1533 11.8182 8.45455 11.8182ZM11.1818 11.8182C11.4831 11.8182 11.7273 11.574 11.7273 11.2727C11.7273 10.9715 11.4831 10.7273 11.1818 10.7273C10.8806 10.7273 10.6364 10.9715 10.6364 11.2727C10.6364 11.574 10.8806 11.8182 11.1818 11.8182ZM11.1818 9.63636C11.4831 9.63636 11.7273 9.39216 11.7273 9.09091C11.7273 8.78966 11.4831 8.54545 11.1818 8.54545C10.8806 8.54545 10.6364 8.78966 10.6364 9.09091C10.6364 9.39216 10.8806 9.63636 11.1818 9.63636ZM8.45455 9.63636C8.75579 9.63636 9 9.39216 9 9.09091C9 8.78966 8.75579 8.54545 8.45455 8.54545C8.1533 8.54545 7.90909 8.78966 7.90909 9.09091C7.90909 9.39216 8.1533 9.63636 8.45455 9.63636ZM12.2727 3.09091H11.7273V2.54545C11.7273 2.24421 11.4831 2 11.1818 2C10.8806 2 10.6364 2.24421 10.6364 2.54545V3.09091H6.27273V2.54545C6.27273 2.24421 6.02852 2 5.72727 2C5.42603 2 5.18182 2.24421 5.18182 2.54545V3.09091H4.63636C3.73262 3.09091 3 3.82353 3 4.72727V12.3636C3 13.2674 3.73262 14 4.63636 14H12.2727C13.1765 14 13.9091 13.2674 13.9091 12.3636V4.72727C13.9091 3.82353 13.1765 3.09091 12.2727 3.09091ZM12.8182 12.3636C12.8182 12.6649 12.574 12.9091 12.2727 12.9091H4.63636C4.33512 12.9091 4.09091 12.6649 4.09091 12.3636V7.45455H12.8182V12.3636ZM12.8182 6.36364H4.09091V4.72727C4.09091 4.42603 4.33512 4.18182 4.63636 4.18182H5.18182V4.72727C5.18182 5.02852 5.42603 5.27273 5.72727 5.27273C6.02852 5.27273 6.27273 5.02852 6.27273 4.72727V4.18182H10.6364V4.72727C10.6364 5.02852 10.8806 5.27273 11.1818 5.27273C11.4831 5.27273 11.7273 5.02852 11.7273 4.72727V4.18182H12.2727C12.574 4.18182 12.8182 4.42603 12.8182 4.72727V6.36364ZM5.72727 9.63636C6.02852 9.63636 6.27273 9.39216 6.27273 9.09091C6.27273 8.78966 6.02852 8.54545 5.72727 8.54545C5.42603 8.54545 5.18182 8.78966 5.18182 9.09091C5.18182 9.39216 5.42603 9.63636 5.72727 9.63636ZM5.72727 11.8182C6.02852 11.8182 6.27273 11.574 6.27273 11.2727C6.27273 10.9715 6.02852 10.7273 5.72727 10.7273C5.42603 10.7273 5.18182 10.9715 5.18182 11.2727C5.18182 11.574 5.42603 11.8182 5.72727 11.8182Z" fill="#A5A2A2"/>
</svg>
