<svg width="16" height="16" viewBox="0 0 16 16" fill="none" xmlns="http://www.w3.org/2000/svg">
<path d="M12.6666 1.33333H3.33331C2.22874 1.33333 1.33331 2.22876 1.33331 3.33333V10C1.33331 11.1046 2.22874 12 3.33331 12H11.06L13.5266 14.4733C13.6525 14.5981 13.8228 14.6677 14 14.6667C14.0874 14.6689 14.1742 14.6506 14.2533 14.6133C14.5023 14.5111 14.6653 14.2691 14.6666 14V3.33333C14.6666 2.22876 13.7712 1.33333 12.6666 1.33333ZM13.3333 12.3933L11.8066 10.86C11.6808 10.7352 11.5105 10.6656 11.3333 10.6667H3.33331C2.96512 10.6667 2.66665 10.3682 2.66665 10V3.33333C2.66665 2.96514 2.96512 2.66666 3.33331 2.66666H12.6666C13.0348 2.66666 13.3333 2.96514 13.3333 3.33333V12.3933Z" fill="#A5A2A2"/>
</svg>
