<svg width="16" height="16" viewBox="0 0 16 16" fill="none" xmlns="http://www.w3.org/2000/svg">
<path d="M12.1905 5.33333H3.80952C2.54715 5.33333 1.5238 6.35668 1.5238 7.61904V9.14285C1.5238 10.4052 2.54715 11.4286 3.80952 11.4286H12.1905C13.4528 11.4286 14.4762 10.4052 14.4762 9.14285V7.61904C14.4762 6.35668 13.4528 5.33333 12.1905 5.33333Z" stroke="#A5A2A2" stroke-width="2"/>
</svg>
