<svg width="10" height="16" viewBox="0 0 10 16" fill="none" xmlns="http://www.w3.org/2000/svg">
<path d="M5.36571 13.7813L8.8001 10.2625L9.60001 11.082L4.80001 16L4.40005 15.5902L5.72532e-06 11.082L0.799912 10.2625L4.2343 13.7813L4.2343 -2.38419e-07H5.36571L5.36571 13.7813Z" fill="#A5A2A2"/>
</svg>
