<svg width="16" height="16" viewBox="0 0 16 16" fill="none" xmlns="http://www.w3.org/2000/svg">
<path fill-rule="evenodd" clip-rule="evenodd" d="M2.05836 1.11628C1.56952 1.11628 1.14589 1.51783 1.14589 2.04651V8.74419C1.14589 9.27286 1.56952 9.67442 2.05836 9.67442H2.80106C3.11749 9.67442 3.37401 9.92431 3.37401 10.2326C3.37401 10.5408 3.11749 10.7907 2.80106 10.7907H2.05836C0.90645 10.7907 0 9.85952 0 8.74419V2.04651C0 0.93118 0.90645 0 2.05836 0H8.74271C9.89461 0 10.8011 0.931181 10.8011 2.04651V2.7907C10.8011 3.09895 10.5445 3.34884 10.2281 3.34884C9.91169 3.34884 9.65517 3.09895 9.65517 2.7907V2.04651C9.65517 1.51783 9.23154 1.11628 8.74271 1.11628H2.05836ZM7.25729 6.32558C6.76846 6.32558 6.34483 6.72713 6.34483 7.25581V13.9535C6.34483 14.4822 6.76846 14.8837 7.25729 14.8837H13.9416C14.4305 14.8837 14.8541 14.4822 14.8541 13.9535V7.25581C14.8541 6.72713 14.4305 6.32558 13.9416 6.32558H7.25729ZM5.19894 7.25581C5.19894 6.14048 6.10539 5.2093 7.25729 5.2093H13.9416C15.0936 5.2093 16 6.14048 16 7.25581V13.9535C16 15.0688 15.0936 16 13.9416 16H7.25729C6.10539 16 5.19894 15.0688 5.19894 13.9535V7.25581Z" fill="#A5A2A2"/>
</svg>
