<svg width="16" height="16" viewBox="0 0 16 16" fill="none" xmlns="http://www.w3.org/2000/svg">
<path d="M4.69364 16V8.89011H11.6247V16H14.3077V0H11.6247V6.65934H4.69364V0H2V16H4.69364Z" fill="#A5A2A2"/>
</svg>
