<svg width="16" height="16" viewBox="0 0 16 16" fill="none" xmlns="http://www.w3.org/2000/svg">
<path d="M7.15174 3.26567C7.43221 3.22268 7.71557 3.2013 7.99932 3.20171C10.5421 3.20171 12.9329 5.0328 14.3242 7.99933C14.1114 8.45078 13.8711 8.88872 13.6045 9.31068C13.5199 9.44166 13.4755 9.59453 13.4766 9.75046C13.4803 10.1091 13.7223 10.4214 14.0686 10.5145C14.4149 10.6076 14.7809 10.4587 14.9639 10.1503C15.3364 9.5649 15.66 8.94978 15.9314 8.31117C16.0181 8.10954 16.0181 7.88113 15.9314 7.67949C14.3162 3.92935 11.2777 1.60242 7.99932 1.60242C7.62404 1.60061 7.24936 1.63272 6.87987 1.69845C6.5942 1.74701 6.35614 1.94429 6.25537 2.21597C6.15459 2.48765 6.2064 2.79246 6.39129 3.01558C6.57618 3.23869 6.86607 3.34622 7.15174 3.29766V3.26567ZM1.3706 0.235175C1.16777 0.0323484 0.872147 -0.0468639 0.595081 0.0273757C0.318015 0.101615 0.101615 0.318029 0.027376 0.595095C-0.0468632 0.872161 0.0323454 1.16779 0.235171 1.37061L2.71395 3.84139C1.58296 4.93007 0.682831 6.23539 0.0672504 7.67949C-0.021756 7.88343 -0.021756 8.11523 0.0672504 8.31917C1.68245 12.0693 4.72094 14.3962 7.99932 14.3962C9.43629 14.3862 10.8393 13.9584 12.0373 13.1648L14.628 15.7635C14.7782 15.9149 14.9826 16 15.1958 16C15.409 16 15.6133 15.9149 15.7635 15.7635C15.9149 15.6133 16 15.409 16 15.1958C16 14.9826 15.9149 14.7782 15.7635 14.628L1.3706 0.235175ZM6.45608 7.58353L8.41511 9.54256C8.27997 9.58132 8.1399 9.60017 7.99932 9.59854C7.1161 9.59854 6.40011 8.88255 6.40011 7.99933C6.39848 7.85875 6.41733 7.71868 6.45608 7.58353ZM7.99932 12.797C5.45658 12.797 3.06576 10.9659 1.68245 7.99933C2.19906 6.85889 2.93229 5.82967 3.84138 4.96883L5.25668 6.40012C4.57383 7.6464 4.79517 9.19376 5.80003 10.1986C6.80489 11.2035 8.35226 11.4248 9.59853 10.742L10.8699 11.9973C9.99921 12.5098 9.00956 12.7855 7.99932 12.797Z" fill="#A5A2A2"/>
</svg>
