<svg width="16" height="16" viewBox="0 0 16 16" fill="none" xmlns="http://www.w3.org/2000/svg">
<path fill-rule="evenodd" clip-rule="evenodd" d="M8.22223 3.43611C6.46416 3.43611 4.88056 4.70114 4.88056 6.44444C4.88056 8.18774 6.46416 9.45277 8.22223 9.45277C9.9803 9.45277 11.5639 8.18774 11.5639 6.44444C11.5639 4.70114 9.9803 3.43611 8.22223 3.43611ZM6.23056 6.44444C6.23056 5.61041 7.03478 4.78611 8.22223 4.78611C9.40968 4.78611 10.2139 5.61041 10.2139 6.44444C10.2139 7.27847 9.40968 8.10277 8.22223 8.10277C7.03478 8.10277 6.23056 7.27847 6.23056 6.44444Z" fill="#A5A2A2"/>
<path fill-rule="evenodd" clip-rule="evenodd" d="M7.93948 15.4601C7.93964 15.4602 7.93978 15.4602 8.22221 15L7.93948 15.4601C8.11275 15.5664 8.33137 15.5666 8.50464 15.4602L8.22221 15C8.50464 15.4602 8.50448 15.4603 8.50464 15.4602L8.50672 15.459L8.51104 15.4563L8.52632 15.4468C8.5394 15.4386 8.55821 15.4268 8.58237 15.4114C8.63069 15.3806 8.70042 15.3355 8.78852 15.2769C8.96467 15.1598 9.21456 14.9886 9.51367 14.7693C10.1109 14.3316 10.9092 13.6991 11.7096 12.9214C13.2823 11.3934 14.9844 9.18886 14.9844 6.72726C14.9844 3.22468 11.9139 0.459991 8.22221 0.459991C4.53055 0.459991 1.45999 3.22468 1.45999 6.72726C1.45999 9.18886 3.16216 11.3934 4.73481 12.9214C5.53524 13.6991 6.3335 14.3316 6.93076 14.7693C7.22987 14.9886 7.47976 15.1598 7.6559 15.2769C7.744 15.3355 7.81374 15.3806 7.86205 15.4114C7.88621 15.4268 7.90502 15.4386 7.9181 15.4468L7.93338 15.4563L7.93771 15.459L7.93948 15.4601ZM2.53999 6.72726C2.53999 3.90368 5.041 1.53999 8.22221 1.53999C11.4034 1.53999 13.9044 3.90368 13.9044 6.72726C13.9044 8.72021 12.4955 10.652 10.957 12.1468C10.2019 12.8805 9.44461 13.4809 8.87521 13.8983C8.60873 14.0936 8.38445 14.248 8.22221 14.3565C8.05998 14.248 7.8357 14.0936 7.56922 13.8983C6.99981 13.4809 6.24252 12.8805 5.4874 12.1468C3.94893 10.652 2.53999 8.72021 2.53999 6.72726Z" fill="#A5A2A2"/>
</svg>
