<svg width="16" height="16" viewBox="0 0 16 16" fill="none" xmlns="http://www.w3.org/2000/svg">
<path fill-rule="evenodd" clip-rule="evenodd" d="M15.0352 0.0494914C15.297 -0.0595924 15.5988 0.000113681 15.7993 0.200682C15.9999 0.40125 16.0596 0.703028 15.9505 0.96486L10.0486 15.1311C9.93664 15.3999 9.66993 15.5713 9.3789 15.5615C9.08787 15.5517 8.8333 15.3628 8.73965 15.087L7.0063 9.98367L2.44281 14.5472C2.16945 14.8205 1.72623 14.8205 1.45286 14.5472C1.1795 14.2738 1.1795 13.8306 1.45286 13.5572L6.01634 8.99373L0.91299 7.26038C0.637262 7.16673 0.448311 6.91216 0.43851 6.62113C0.428709 6.3301 0.600106 6.06339 0.86891 5.9514L15.0352 0.0494914ZM9.46915 12.8817L14.0045 1.99552L3.11836 6.53088L7.53228 8.03006C7.73826 8.10002 7.90001 8.26177 7.96997 8.46775L9.46915 12.8817Z" fill="#A5A2A2"/>
</svg>
