<svg width="16" height="16" viewBox="0 0 16 16" fill="none" xmlns="http://www.w3.org/2000/svg">
<path d="M8.08377 0.205333C7.94937 0.0780594 7.76789 0 7.56818 0C7.3605 0 7.17254 0.0844084 7.03673 0.220789L4.12876 3.12876C3.83586 3.42165 3.83586 3.89653 4.12876 4.18942C4.42165 4.48231 4.89653 4.48231 5.18942 4.18942L6.81818 2.56066V10.2045C6.81818 10.6188 7.15396 10.9545 7.56818 10.9545C7.98239 10.9545 8.31818 10.6188 8.31818 10.2045V2.56066L9.94694 4.18942C10.2398 4.48231 10.7147 4.48231 11.0076 4.18942C11.3005 3.89653 11.3005 3.42165 11.0076 3.12876L8.09851 0.21967C8.09366 0.214817 8.08874 0.210038 8.08377 0.205333Z" fill="#A5A2A2"/>
<path d="M1.75 7.27272C2.16421 7.27272 2.5 7.60851 2.5 8.02272V13.8409C2.5 14.23 2.81544 14.5454 3.20455 14.5454H11.9318C12.3209 14.5454 12.6364 14.23 12.6364 13.8409V8.02272C12.6364 7.60851 12.9721 7.27272 13.3864 7.27272C13.8006 7.27272 14.1364 7.60851 14.1364 8.02272V13.8409C14.1364 15.0584 13.1494 16.0454 11.9318 16.0454H3.20455C1.98701 16.0454 1 15.0584 1 13.8409V8.02272C1 7.60851 1.33579 7.27272 1.75 7.27272Z" fill="#A5A2A2"/>
</svg>
