<svg width="16" height="16" viewBox="0 0 16 16" fill="none" xmlns="http://www.w3.org/2000/svg">
<path d="M4.93311 4.1875C4.51889 4.1875 4.18311 4.52329 4.18311 4.9375C4.18311 5.35171 4.51889 5.6875 4.93311 5.6875H4.94186C5.35607 5.6875 5.69186 5.35171 5.69186 4.9375C5.69186 4.52329 5.35607 4.1875 4.94186 4.1875H4.93311Z" fill="#A5A2A2"/>
<path fill-rule="evenodd" clip-rule="evenodd" d="M1 0.25C0.585786 0.25 0.25 0.585786 0.25 1V8.30438C0.25 8.50341 0.329111 8.69428 0.469909 8.83495L6.74213 15.1015C7.15668 15.5163 7.71966 15.75 8.30613 15.75C8.89273 15.75 9.45525 15.5168 9.86982 15.1018L15.1057 9.86456L15.1073 9.86298C15.9642 9.00067 15.9642 7.60809 15.1073 6.74578L8.83287 0.469739C8.69221 0.329045 8.50142 0.25 8.30247 0.25H1ZM1.75 4.25798V7.99353L4.93448 11.1751L1.75 4.25798ZM1.75 4.25798L4.93448 11.1751L7.80292 14.041C7.9362 14.1744 8.11762 14.25 8.30613 14.25C8.49463 14.25 8.67545 14.175 8.80873 14.0416L14.0433 8.80562C14.3181 8.52851 14.3187 8.08095 14.044 7.80381L7.99176 1.75H1.75V4.25798Z" fill="#A5A2A2"/>
</svg>
