<svg width="16" height="16" viewBox="0 0 16 16" fill="none" xmlns="http://www.w3.org/2000/svg">
<path d="M10.5745 7.82212C11.3974 7.09097 11.8702 6.02892 11.8702 4.91176C11.8702 2.75136 10.164 1 8.05931 1C5.95462 1 4.24842 2.75136 4.24842 4.91176C4.25795 6.0352 4.74516 7.09829 5.58223 7.82212C3.40312 8.83498 2.00229 11.0622 2 13.5176C2 13.9497 2.34124 14.3 2.76218 14.3C3.18312 14.3 3.52436 13.9497 3.52436 13.5176C3.52436 10.9252 5.57179 8.82353 8.09742 8.82353C10.6231 8.82353 12.6705 10.9252 12.6705 13.5176C12.6705 13.9497 13.0117 14.3 13.4327 14.3C13.8536 14.3 14.1948 13.9497 14.1948 13.5176C14.1858 11.053 12.7685 8.82335 10.5745 7.82212ZM8.05931 7.25882C6.7965 7.25882 5.77278 6.20801 5.77278 4.91176C5.77278 3.61552 6.7965 2.56471 8.05931 2.56471C9.32213 2.56471 10.3458 3.61552 10.3458 4.91176C10.3458 5.53424 10.1049 6.13123 9.67614 6.57139C9.24733 7.01155 8.66574 7.25882 8.05931 7.25882Z" fill="#A5A2A2"/>
</svg>
